<?xml version="1.0" encoding="utf-8"?>
<!-- Generator: Adobe Illustrator 21.1.0, SVG Export Plug-In . SVG Version: 6.00 Build 0)  -->
<svg version="1.1" id="Layer_1" xmlns="http://www.w3.org/2000/svg" xmlns:xlink="http://www.w3.org/1999/xlink" x="0px" y="0px"
	 width="662.6px" height="344.2px" viewBox="0 0 662.6 344.2" style="enable-background:new 0 0 662.6 344.2;" xml:space="preserve"
	>
<g>
	<path d="M105.2,176.8v-27.9c0-11.1-5.8-16.6-17.1-16.6c-12.7,0-18.5,5.3-18.5,16.6v107.8c0,10.8,6.1,16.6,17.4,16.6
		c12.2,0,18.2-5.5,18.2-16.6v-31h-9.9v31.8c0,5-2.5,7.5-7.5,7.5c-5.5,0-8.3-2.5-8.3-8V150c0-6.4,2.5-9.4,7.7-9.4c5.8,0,8,2.8,8,9.4
		v26.8H105.2z"/>
	<path d="M212.8,272.2V146.4c0-9.4-5.8-14.1-17.4-14.1c-13.8,0-19.9,4.4-19.9,14.1V173h9.9v-24.3c0-5.3,3-8,8.8-8s8.6,2.5,8.6,8
		v40.1h-4.4c-16,0-22.9,5.8-22.9,19.3v52.8c0,8,4.7,12.4,13.3,12.4c7.2,0,10.5-1.9,13.5-8h0.6v6.9H212.8z M192.3,265
		c-4.4,0-6.9-2.2-6.9-6.4v-48.9c0-9.4,3.9-12.7,14.6-12.7h2.8v52.8C202.9,258.9,198.7,265,192.3,265z"/>
	<path d="M284.1,272.2h9.9V69.1h11.1v-8.7H294V16c0-5.3,1.9-7.7,5.8-7.7h4.4V0h-6.4c-9.7,0-13.8,4.1-13.8,13.5v46.9h-11.4v8.7h11.4
		V272.2z"/>
	<path d="M382.6,273.3c12.2,0,19.1-6.1,19.1-16.6V226h-9.9v29.6c0,6.4-2.8,9.4-8.6,9.4c-6.1,0-8.8-2.8-8.8-9.4v-50.8h27.4v-55.8
		c0-10.8-6.6-16.6-18.2-16.6c-12.4,0-19.1,5.8-19.1,16.6v107.8C364.4,266.9,371.3,273.3,382.6,273.3z M374.3,150
		c0-6.1,3-9.4,8.6-9.4c5.8,0,8.8,3.3,8.8,9.4v46.4h-17.4V150z"/>
	<path d="M472.9,259.7c0,9.4,4.1,13.5,13.8,13.5h26.5V265h-24.5c-3.9,0-5.8-2.5-5.8-7.7V68.7h11.1v-8.3h-11.1V1.3l-9.9,5.5v53.7
		h-11.4v8.3h11.4V259.7z"/>
	<path d="M572.9,273.3c11.6,0,19.1-7.2,19.1-18v-105c0-11.6-6.9-18-19.1-18c-12.2,0-19.1,6.4-19.1,18v105
		C553.8,266.1,561.3,273.3,572.9,273.3z M563.8,150.3c0-6.4,3.3-9.7,9.1-9.7c6.1,0,9.1,3,9.1,9.7v105c0,6.4-3,9.7-9.1,9.7
		c-5.8,0-9.1-3.6-9.1-9.7V150.3z"/>
	<polygon points="554.2,60.3 554.2,69.3 653.6,69.3 653.6,335.1 9,335.1 9,69.3 212.9,69.3 212.9,60.3 0,60.3 0,344.2 662.6,344.2 
		662.6,60.3 	"/>
	<rect x="364.6" y="60.5" width="37.5" height="8.2"/>
</g>
</svg>
